respondent,numberofgroups,Ferret,Horse,Dolphin,Hyena,Parrot,Cheetah,Jaguar,Whale,Tiger,Ox,Wolf,Stingray,Eagle,Seal,Zebra,Monkey,Camel,Koala,Chipmunk,Ostrich,Owl,Flamingo,Alpaca,Crocodile,Sloth,Fish,Platypus
Fish,3,Maybe,Maybe,Maybe,No,No,No,No,Maybe,Maybe,Maybe,Maybe,No,Maybe,Maybe,Maybe,No,Maybe,Maybe,Maybe,Yes,Yes,Yes,Maybe,No,Maybe,Me,No
Parrot,2,Maybe,No,Yes,Maybe,Me,Maybe,No,Yes,No,Maybe,Yes,Maybe,Maybe,Maybe,Maybe,Maybe,No,Maybe,No,Maybe,Maybe,Yes,Maybe,Maybe,Maybe,Maybe,No
Tiger,2,No,Maybe,Yes,Yes,Maybe,Yes,Maybe,Maybe,Me,Maybe,Yes,No,Maybe,Yes,Maybe,No,Yes,Maybe,Maybe,Maybe,Maybe,Yes,Maybe,Yes,Maybe,Maybe,Maybe
Cheetah,3,Maybe,Maybe,Maybe,Maybe,No,Me,Maybe,Maybe,Maybe,Maybe,No,Maybe,No,Maybe,No,No,No,No,Maybe,Maybe,Yes,Yes,No,Maybe,Maybe,No,No
Camel,3,Yes,Yes,Maybe,Yes,Maybe,Maybe,No,Maybe,Yes,Maybe,Yes,Maybe,Maybe,Yes,Yes,Yes,Me,Yes,Maybe,Yes,Yes,Yes,No,Maybe,Maybe,Yes,No
Monkey,2,Maybe,No,Maybe,Yes,Maybe,Maybe,No,No,Yes,Yes,Maybe,No,Yes,No,No,Me,Maybe,Yes,Yes,Yes,Yes,Maybe,Maybe,Maybe,Maybe,Maybe,No
Seal,1,No,No,No,Maybe,No,Yes,No,No,No,Yes,Yes,No,No,Me,Maybe,No,Yes,Yes,Maybe,Maybe,Maybe,No,Yes,No,No,No,Yes
Ox,1,No,Maybe,Maybe,Yes,Maybe,No,No,Maybe,No,Me,No,Maybe,Maybe,Maybe,Maybe,Yes,Maybe,Yes,Maybe,Yes,Yes,Maybe,Maybe,No,Maybe,Maybe,Maybe
Zebra,2,Yes,Yes,Maybe,Maybe,Maybe,Maybe,Maybe,Maybe,Maybe,Maybe,Maybe,Yes,Maybe,Yes,Me,Maybe,Maybe,Maybe,Maybe,Yes,Maybe,Maybe,Maybe,Maybe,Yes,Maybe,Yes
Hyena,2,No,Maybe,Yes,Me,Maybe,Yes,Maybe,Maybe,Yes,Maybe,Maybe,Maybe,Maybe,Maybe,No,Yes,No,Yes,Maybe,Maybe,Maybe,No,Maybe,Yes,Maybe,No,No
Horse,2,Maybe,Me,Maybe,Maybe,Maybe,Yes,Yes,Maybe,Maybe,Maybe,Maybe,Maybe,Maybe,Yes,Yes,Yes,Maybe,Yes,Yes,Yes,Yes,Yes,Maybe,Maybe,Maybe,Maybe,Maybe
Platypus,3,Maybe,No,No,No,Maybe,No,No,Maybe,No,No,No,Maybe,Maybe,No,Yes,No,No,No,Yes,Yes,No,Maybe,No,No,Yes,No,Me
Koala,2,No,Maybe,No,Maybe,No,No,No,Yes,No,Yes,No,No,Yes,No,No,Maybe,No,Me,No,Yes,Yes,Yes,Maybe,Maybe,Maybe,No,No
Flamingo,2,No,Maybe,No,Maybe,No,No,No,Yes,No,Yes,No,No,Yes,No,No,Maybe,No,Yes,No,Yes,Yes,Me,Maybe,Maybe,Maybe,No,No
Jaguar,2,No,Maybe,No,Maybe,Yes,Maybe,Me,No,Yes,Maybe,Maybe,No,Yes,No,Yes,Yes,Yes,Yes,Yes,No,No,No,Maybe,Yes,No,Maybe,No
Owl,2,No,Yes,Maybe,Maybe,No,Yes,No,Maybe,Maybe,Maybe,Maybe,No,Maybe,Maybe,Maybe,No,Maybe,Maybe,No,Maybe,Me,Maybe,No,No,Maybe,Maybe,No
Stingray,2,Maybe,Yes,Maybe,Yes,Yes,Yes,Maybe,Yes,Maybe,Maybe,Maybe,Me,Yes,Yes,Yes,Maybe,Yes,Yes,Maybe,Maybe,Yes,Yes,Maybe,Maybe,Maybe,Maybe,Maybe
Eagle,1,Maybe,No,No,No,No,No,Maybe,Maybe,Maybe,Yes,Maybe,Maybe,Me,Yes,No,No,No,Yes,Maybe,Maybe,Maybe,No,Maybe,Maybe,Maybe,No,No
Dolphin,2,Maybe,No,Me,Yes,No,Yes,No,Maybe,Yes,Maybe,Maybe,No,Yes,Maybe,Maybe,Maybe,Maybe,Maybe,No,Maybe,Yes,Maybe,Maybe,Maybe,Maybe,Maybe,Maybe
Crocodile,2,Yes,Yes,Yes,Yes,Yes,Yes,Yes,Yes,Yes,Yes,Yes,Yes,Yes,Yes,Yes,Yes,Yes,Yes,Yes,Yes,Yes,Yes,Yes,Me,Yes,Yes,Yes
Whale,3,Yes,Yes,Maybe,Yes,Maybe,Yes,Yes,Me,Maybe,Maybe,Yes,Maybe,Maybe,Yes,Yes,Yes,Yes,Yes,Yes,Yes,Maybe,Yes,Yes,Maybe,Maybe,Maybe,Yes
Ferret,3,Me,Yes,Yes,Yes,Yes,Yes,Yes,Yes,Yes,Yes,Yes,Yes,Yes,Yes,Yes,Yes,Yes,Yes,Yes,Yes,Yes,Yes,Yes,Yes,Yes,Yes,Yes
Ostrich,1,Yes,Maybe,Maybe,Maybe,Maybe,Maybe,Maybe,No,No,Maybe,Maybe,No,Maybe,Maybe,Maybe,Maybe,Maybe,Maybe,Maybe,Me,Maybe,Maybe,Maybe,Maybe,Maybe,Maybe,No
Wolf,1,Maybe,Yes,Maybe,Maybe,Maybe,Maybe,Maybe,Maybe,Maybe,Maybe,Me,Maybe,Maybe,Maybe,Yes,Maybe,Maybe,Maybe,Maybe,Maybe,Maybe,Maybe,Maybe,Maybe,Maybe,Maybe,Maybe
Chipmunk,3,Yes,No,Maybe,Yes,No,Maybe,Yes,Maybe,Yes,Yes,No,Maybe,Maybe,Yes,Yes,Yes,Maybe,Yes,Me,Maybe,Maybe,Yes,Maybe,Maybe,Maybe,Yes,No
Alpaca,3,No,No,No,Maybe,Maybe,No,No,Maybe,No,Yes,No,No,Maybe,Maybe,Yes,Yes,No,Yes,No,Yes,Yes,Maybe,Me,No,Yes,No,Maybe
Sloth,3,Yes,Yes,Maybe,Maybe,Yes,Maybe,No,Yes,Maybe,Yes,No,Yes,Yes,Maybe,Yes,Yes,Yes,Yes,Maybe,Yes,Yes,Yes,Yes,Maybe,Me,Yes,Yes